{
    "loginToken": "",
    "ownerDiscordId": "",
    "database": {
        "url": "",
        "user": "",
        "password": "",
        "authSource": "",
        "databaseName": ""
    },
    "features": {
        "serverInfoUpdate": {
            "active": true,
            "interval": 300,
            "method": "EDIT"
        },
        "serverChat": {
            "active": true,
            "interval": 60,
            "seperateTribeLog": true,
            "seperateAdminLog": true
        }
    },
    "isSelfHosted": true,
    "isTesting": false
}